Statistics
N. Worlds: 2
Prob: 0.860000
Time: 0.015625

- WORLDS
===============

ics(removed,[abd(killed(oj,ronald))],[],3,0.7)
Prob: 0.300000

===============

ics(removed,[abd(killed(oj,nicole))],[],2,0.2)
Prob: 0.800000

===============

